{
  "results": [
    {
      "id": "custom:n8n:v1.1.1",
      "title": "Untitled API",
      "description": "",
      "provider": "n8n",
      "preferred": "v1.1.1",
      "categories": [
        "custom"
      ],
      "source": "secondary"
    },
    {
      "id": "custom:PrayerTimes:v1",
      "title": "Untitled API",
      "description": "",
      "provider": "PrayerTimes",
      "preferred": "v1",
      "categories": [
        "custom"
      ],
      "source": "secondary"
    },
    {
      "id": "custom:testapi:1.0.0",
      "title": "Test API",
      "description": "A test API for comprehensive testing",
      "provider": "testapi",
      "preferred": "1.0.0",
      "categories": [
        "custom"
      ],
      "source": "secondary"
    },
    {
      "id": "1forge.com",
      "title": "1Forge Finance APIs",
      "description": "Stock and Forex Data and Realtime Quotes",
      "provider": "1forge.com",
      "preferred": "0.0.1",
      "categories": [
        "financial"
      ],
      "source": "primary"
    },
    {
      "id": "1password.com:events",
      "title": "Events API",
      "description": "1Password Events API Specification.",
      "provider": "1password.com",
      "preferred": "1.0.0",
      "categories": [
        "security"
      ],
      "source": "primary"
    },
    {
      "id": "1password.local:connect",
      "title": "1Password Connect",
      "description": "REST API interface for 1Password Connect.",
      "provider": "1password.local",
      "preferred": "1.5.7",
      "categories": [
        "security"
      ],
      "source": "primary"
    },
    {
      "id": "6-dot-authentiqio.appspot.com",
      "title": "Authentiq API",
      "description": "Strong authentication, without the passwords.",
      "provider": "6-dot-authentiqio.appspot.com",
      "preferred": "6",
      "categories": [
        "security"
      ],
      "source": "primary"
    },
    {
      "id": "ably.io:platform",
      "title": "Platform API",
      "description": "The [REST API specification](https://www.ably.io/documentation/rest-api) for Ably.",
      "provider": "ably.io",
      "preferred": "1.1.0",
      "categories": [
        "cloud"
      ],
      "source": "primary"
    },
    {
      "id": "ably.net:control",
      "title": "Control API v1",
      "description": "Use the Control API to manage your applications, namespaces, keys, queues, rules, and more.\n\nDetailed information on using this API can be found in the Ably <a href=\"https://ably.com/documentation/con...",
      "provider": "ably.net",
      "preferred": "1.0.14",
      "categories": [
        "cloud"
      ],
      "source": "primary"
    },
    {
      "id": "abstractapi.com:geolocation",
      "title": "IP geolocation API",
      "description": "Abstract IP geolocation API allows developers to retrieve the region, country and city behind any IP worldwide. The API covers the geolocation of IPv4 and IPv6 addresses in 180+ countries worldwide. E...",
      "provider": "abstractapi.com",
      "preferred": "1.0.0",
      "categories": [
        "location"
      ],
      "source": "primary"
    }
  ],
  "pagination": {
    "page": 1,
    "limit": 10,
    "total_results": 13,
    "total_pages": 2,
    "has_next": true,
    "has_previous": false
  }
}